dc/add16.self/out.vcd
$date
	Thu Oct 12 20:14:19 2017
$end
$version
	Icarus Verilog
$end
$timescale
	1ps
$end
$scope module test $end
$var wire 16 ! out [15:0] $end
$var wire 1 " cout $end
$var reg 16 # adda [15:0] $end
$var reg 16 $ addb [15:0] $end
$var reg 1 % cin $end
$var reg 1 & clk $end
$scope module a16 $end
$var wire 1 % cin $end
$var wire 16 ' in1 [15:0] $end
$var wire 16 ( in2 [15:0] $end
$var wire 1 ) wire3 $end
$var wire 1 * wire2 $end
$var wire 1 + wire1 $end
$var wire 16 , out [15:0] $end
$var wire 1 " cout $end
$var wire 4 - bdd4 [3:0] $end
$var wire 4 . bdd3 [3:0] $end
$var wire 4 / bdd2 [3:0] $end
$var wire 4 0 bdd1 [3:0] $end
$var wire 4 1 add4 [3:0] $end
$var wire 4 2 add3 [3:0] $end
$var wire 4 3 add2 [3:0] $end
$var wire 4 4 add1 [3:0] $end
$scope module a1 $end
$var wire 4 5 add1 [3:0] $end
$var wire 4 6 add2 [3:0] $end
$var wire 1 % cin $end
$var wire 4 7 out [3:0] $end
$var wire 1 + cout $end
$upscope $end
$scope module a2 $end
$var wire 4 8 add1 [3:0] $end
$var wire 4 9 add2 [3:0] $end
$var wire 1 + cin $end
$var wire 4 : out [3:0] $end
$var wire 1 * cout $end
$upscope $end
$scope module a3 $end
$var wire 4 ; add1 [3:0] $end
$var wire 4 < add2 [3:0] $end
$var wire 1 * cin $end
$var wire 4 = out [3:0] $end
$var wire 1 ) cout $end
$upscope $end
$scope module a4 $end
$var wire 4 > add1 [3:0] $end
$var wire 4 ? add2 [3:0] $end
$var wire 1 ) cin $end
$var wire 4 @ out [3:0] $end
$var wire 1 " cout $end
$upscope $end
$upscope $end
$upscope $end
$enddefinitions $end
#0
$dumpvars
b0 @
b0 ?
b0 >
b0 =
b0 <
b0 ;
b0 :
b0 9
b0 8
b0 7
b0 6
b0 5
b0 4
b0 3
b0 2
b0 1
b0 0
b0 /
b0 .
b0 -
b0 ,
0+
0*
0)
b0 (
b0 '
0&
0%
b0 $
b0 #
0"
b0 !
$end
#50000
1)
b1001 @
b11 =
b1010 :
b1001001110100110 !
b1001001110100110 ,
b110 7
b101 -
b101 ?
b1110 .
b1110 <
b1000 /
b1000 9
b1 0
b1 6
b11 1
b11 >
b101 2
b101 ;
b10 3
b10 8
b100 4
b100 5
1%
b101111010000001 $
b101111010000001 (
b11010100100100 #
b11010100100100 '
1&
#100000
0&
#150000
1+
b1101 @
b1 =
b111 :
b1101000101110001 !
b1101000101110001 ,
b1 7
b111 -
b111 ?
b1011 .
b1011 <
b0 /
b0 9
b1101 0
b1101 6
b101 1
b101 >
b110 2
b110 ;
b110 3
b110 8
b11 4
b11 5
b111101100001101 $
b111101100001101 (
b101011001100011 #
b101011001100011 '
1&
#200000
0&
#250000
0+
b110 =
0)
b1101011001111000 !
b1101011001111000 ,
b1000 7
b101 -
b101 ?
b10 .
b10 <
b1 /
b1 9
b10 0
b10 6
b1000 1
b1000 >
b100 2
b100 ;
b101 4
b101 5
b101001000010010 $
b101001000010010 (
b1000010001100101 #
b1000010001100101 '
1&
#300000
0&
#350000
b1011 @
1"
b1110 =
b1000 :
b1011111010000100 !
b1011111010000100 ,
b100 7
1+
b1111 -
b1111 ?
b1 .
b1 <
b111 /
b111 9
b110 0
b110 6
b1100 1
b1100 >
b1101 2
b1101 ;
b0 3
b0 8
b1101 4
b1101 5
b1111000101110110 $
b1111000101110110 (
b1100110100001101 #
b1100110100001101 '
1&
#400000
0&
#450000
b1010 7
b100 @
b1111 =
b100111101111010 !
b100111101111010 ,
b111 :
1*
b111 .
b111 <
b1000 /
b1000 9
b1100 0
b1100 6
b101 1
b101 >
b111 2
b111 ;
b1110 3
b1110 8
b1111011110001100 $
b1111011110001100 (
b101011111101101 #
b101011111101101 '
1&
#500000
0&
#550000
0"
0+
b1010 @
b1001 =
b1000 :
b1010100110001011 !
b1010100110001011 ,
b1011 7
b1000 -
b1000 ?
b100 .
b100 <
b1100 /
b1100 9
b101 0
b101 6
b10 1
b10 >
b100 2
b100 ;
b1100 3
b1100 8
b110 4
b110 5
0%
b1000010011000101 $
b1000010011000101 (
b10010011000110 #
b10010011000110 '
1&
#600000
0&
#650000
b110 @
1"
b1010 =
b101 :
b110101001011100 !
b110101001011100 ,
b1100 7
b111 -
b111 ?
b10 .
b10 <
b111 /
b111 9
b111 0
b111 6
b1111 1
b1111 >
b111 2
b111 ;
b1110 3
b1110 8
b101 4
b101 5
b111001001110111 $
b111001001110111 (
b1111011111100101 #
b1111011111100101 '
1&
#700000
0&
#750000
1)
b100 @
b101 =
b1000 :
b100010110000001 !
b100010110000001 ,
b1 7
1+
b110 -
b110 ?
b1001 .
b1001 <
b1111 /
b1111 9
b10 0
b10 6
b1101 1
b1101 >
b1011 2
b1011 ;
b1000 3
b1000 8
b1111 4
b1111 5
b110100111110010 $
b110100111110010 (
b1101101110001111 #
b1101101110001111 '
1&
#800000
0&
#850000
b1100 @
0"
b1001 =
b1010 :
b1100100110101101 !
b1100100110101101 ,
b1101 7
0+
b100 -
b100 ?
b1110 .
b1110 <
b1100 /
b1100 9
b101 0
b101 6
b111 1
b111 >
b1010 2
b1010 ;
b1110 3
b1110 8
b1000 4
b1000 5
b100111011000101 $
b100111011000101 (
b111101011101000 #
b111101011101000 '
1&
#900000
0&
#950000
0*
b1000 @
b0 =
b1110 :
1+
b1000000011101011 !
b1000000011101011 ,
b1011 7
b101 -
b101 ?
b1000 .
b1000 <
b10 /
b10 9
b1101 0
b1101 6
b10 1
b10 >
b1000 2
b1000 ;
b1011 3
b1011 8
b1101 4
b1101 5
1%
b101100000101101 $
b101100000101101 (
b10100010111101 #
b10100010111101 '
1&
#1000000
0&
#1050000
0+
b1110 @
b1001 =
0)
b110 :
b1110100101101101 !
b1110100101101101 ,
b1101 7
b1000 -
b1000 ?
b111 .
b111 <
b0 /
b0 9
b1010 0
b1010 6
b110 1
b110 >
b10 2
b10 ;
b110 3
b110 8
b11 4
b11 5
0%
b1000011100001010 $
b1000011100001010 (
b110001001100011 #
b110001001100011 '
1&
#1100000
0&
#1150000
b110 @
b110 =
b1100 :
b110011011001011 !
b110011011001011 ,
b1011 7
b100 -
b100 ?
b101 .
b101 <
b1010 /
b1010 9
b10 1
b10 >
b1 2
b1 ;
b10 3
b10 8
b0 4
b0 5
1%
b100010110101010 $
b100010110101010 (
b10000100100000 #
b10000100100000 '
1&
#1200000
0&
#1250000
b1111 @
1)
b1010 :
b1111011010101010 !
b1111011010101010 ,
b1010 7
b1011 -
b1011 ?
b1000 .
b1000 <
b1 /
b1 9
b11 0
b11 6
b11 1
b11 >
b1110 2
b1110 ;
b1001 3
b1001 8
b110 4
b110 5
b1011100000010011 $
b1011100000010011 (
b11111010010110 #
b11111010010110 '
1&
#1300000
0&
#1350000
b1011 @
1"
b11 =
b1011 :
b1011001110111111 !
b1011001110111111 ,
b1111 7
b1101 -
b1101 ?
b1101 .
b1101 <
b110 /
b110 9
b1011 0
b1011 6
b1101 1
b1101 >
b110 2
b110 ;
b101 3
b101 8
b11 4
b11 5
b1101110101101011 $
b1101110101101011 (
b1101011001010011 #
b1101011001010011 '
1&
#1400000
0&
#1450000
0"
1+
b1000 @
b1000 =
b1011 :
b1000100010110001 !
b1000100010110001 ,
b1 7
b11 -
b11 ?
b1110 .
b1110 <
b1010 /
b1010 9
b1110 0
b1110 6
b100 1
b100 >
b1010 2
b1010 ;
b0 3
b0 8
b10 4
b10 5
b11111010101110 $
b11111010101110 (
b100101000000010 #
b100101000000010 '
1&
#1500000
0&
#1550000
0)
b1011 @
b1011 =
b1111 :
b1011101111110010 !
b1011101111110010 ,
b10 7
b100 -
b100 ?
b1001 .
b1001 <
b10 /
b10 9
b11 0
b11 6
b111 1
b111 >
b10 2
b10 ;
b1100 3
b1100 8
b1111 4
b1111 5
0%
b100100100100011 $
b100100100100011 (
b111001011001111 #
b111001011001111 '
1&
#1600000
0&
#1650000
b0 :
1*
b101 @
b111 =
1)
b101011100000110 !
b101011100000110 ,
b110 7
b1100 .
b1100 <
b11 /
b11 9
b1100 0
b1100 6
b0 1
b0 >
b1010 2
b1010 ;
b1010 4
b1010 5
b100110000111100 $
b100110000111100 (
b101011001010 #
b101011001010 '
1&
#1700000
0&
#1750000
1"
b1011 7
0+
b1 @
b100 =
0)
b1010011001011 !
b1010011001011 ,
b1100 :
0*
b1011 -
b1011 ?
b11 .
b11 <
b100 /
b100 9
b1 0
b1 6
b110 1
b110 >
b1 2
b1 ;
b1000 3
b1000 8
b1011001101000001 $
b1011001101000001 (
b110000110001010 #
b110000110001010 '
1&
#1800000
0&
#1850000
1*
1+
b0 @
b110 =
b0 :
b11000000010 !
b11000000010 ,
b10 7
b1 -
b1 ?
b10 .
b10 <
b1000 /
b1000 9
b1001 0
b1001 6
b1111 1
b1111 >
b11 2
b11 ;
b111 3
b111 8
b1000 4
b1000 5
1%
b1001010001001 $
b1001010001001 (
b1111001101111000 #
b1111001101111000 '
1&
#1900000
0&
#1950000
b101 @
b1111 =
b111 :
0+
b101111101111100 !
b101111101111100 ,
b1100 7
b1111 -
b1111 ?
b1001 .
b1001 <
b1100 /
b1100 9
b110 0
b110 6
b110 1
b110 >
b101 2
b101 ;
b1011 3
b1011 8
b110 4
b110 5
0%
b1111100111000110 $
b1111100111000110 (
b110010110110110 #
b110010110110110 '
1&
#2000000
0&
#2050000
b1110 :
0*
b1101 @
0"
b1111 =
1+
b1101111111100111 !
b1101111111100111 ,
b111 7
b1101 -
b1101 ?
b1101 .
b1101 <
b10 /
b10 9
b1010 0
b1010 6
b0 1
b0 >
b10 2
b10 ;
b1100 4
b1100 5
1%
b1101110100101010 $
b1101110100101010 (
b1010111100 #
b1010111100 '
1&
#2100000
0&
#2150000
b1111 @
b1111111111110111 !
b1111111111110111 ,
b1111 :
0+
b100 -
b100 ?
b1 .
b1 <
b1000 /
b1000 9
b101 0
b101 6
b1011 1
b1011 >
b1110 2
b1110 ;
b111 3
b111 8
b1 4
b1 5
b100000110000101 $
b100000110000101 (
b1011111001110001 #
b1011111001110001 '
1&
#2200000
0&
#2250000
b1001 @
b11 =
b111 :
1+
b1001001101110101 !
b1001001101110101 ,
b101 7
b11 -
b11 ?
b11 .
b11 <
b11 /
b11 9
b1010 0
b1010 6
b110 1
b110 >
b0 2
b0 ;
b11 3
b11 8
b1011 4
b1011 5
0%
b11001100111010 $
b11001100111010 (
b110000000111011 #
b110000000111011 '
1&
#2300000
0&
#2350000
1)
1*
0+
b1110 @
b111 =
b0 :
b1110011100000111 !
b1110011100000111 ,
b111 7
b1001 -
b1001 ?
b1011 .
b1011 <
b1111 /
b1111 9
b1 0
b1 6
b100 1
b100 >
b1011 2
b1011 ;
b1 3
b1 8
b101 4
b101 5
1%
b1001101111110001 $
b1001101111110001 (
b100101100010101 #
b100101100010101 '
1&
#2400000
0&
#2450000
1"
0*
b0 @
b10 =
b1010 :
b1010101111 !
b1010101111 ,
b1111 7
b1111 -
b1111 ?
b100 /
b100 9
b1100 0
b1100 6
b0 1
b0 >
b111 2
b111 ;
b110 3
b110 8
b10 4
b10 5
b1111101101001100 $
b1111101101001100 (
b11101100010 #
b11101100010 '
1&
#2500000
0&
#2550000
1*
b100 @
b1011 =
0)
b1000 :
b100101110001000 !
b100101110001000 ,
b1000 7
1+
b1010 -
b1010 ?
b1001 .
b1001 <
b1111 /
b1111 9
b1000 0
b1000 6
b1010 1
b1010 >
b1 2
b1 ;
b1000 3
b1000 8
b1111 4
b1111 5
b1010100111111000 $
b1010100111111000 (
b1010000110001111 #
b1010000110001111 '
1&
#2600000
0&
#2650000
b1010 =
0*
b1100 7
b1110 @
0"
b1110101011111100 !
b1110101011111100 ,
b1111 :
b1001 -
b1001 ?
b100 .
b100 <
b101 /
b101 9
b1100 0
b1100 6
b101 1
b101 >
b110 2
b110 ;
b1001 3
b1001 8
b1001010001011100 $
b1001010001011100 (
b101011010011111 #
b101011010011111 '
1&
#2700000
0&
#2750000
b110 @
b1001 =
b1101 :
b110100111010010 !
b110100111010010 ,
b10 7
b11 -
b11 ?
b10 .
b10 <
b100 /
b100 9
b1001 0
b1001 6
b11 1
b11 >
b111 2
b111 ;
b1000 3
b1000 8
b1001 4
b1001 5
0%
b11001001001001 $
b11001001001001 (
b11011110001001 #
b11011110001001 '
1&
#2800000
0&
#2850000
1"
0+
b1011 @
b1101 =
b10 :
1*
b1011110100101000 !
b1011110100101000 ,
b1000 7
b1111 -
b1111 ?
b1100 .
b1100 <
b101 /
b101 9
b1 0
b1 6
b1100 1
b1100 >
b0 2
b0 ;
b1101 3
b1101 8
b111 4
b111 5
b1111110001010001 $
b1111110001010001 (
b1100000011010111 #
b1100000011010111 '
1&
#2900000
0&
#2950000
b100 @
1)
b1100 :
0*
b100110111001110 !
b100110111001110 ,
b1110 7
b1100 -
b1100 ?
b1110 .
b1110 <
b1100 /
b1100 9
b10 0
b10 6
b111 1
b111 >
b1111 2
b1111 ;
b0 3
b0 8
b1100 4
b1100 5
b1100111011000010 $
b1100111011000010 (
b111111100001100 #
b111111100001100 '
1&
#3000000
0&
#3050000
1+
b111 =
b1011 :
b100011110110100 !
b100011110110100 ,
b100 7
b1110 -
b1110 ?
b1101 .
b1101 <
b11 /
b11 9
b1101 0
b1101 6
b101 1
b101 >
b1010 2
b1010 ;
b111 3
b111 8
b111 4
b111 5
b1110110100111101 $
b1110110100111101 (
b101101001110111 #
b101101001110111 '
1&
#3100000
0&
#3150000
b1110 :
b1000 @
0"
b1 =
0)
b1000000111101100 !
b1000000111101100 ,
b1100 7
b1000 -
b1000 ?
b1 .
b1 <
b110 /
b110 9
b0 1
b0 >
b0 2
b0 ;
b1110 4
b1110 5
1%
b1000000101101101 $
b1000000101101101 (
b1111110 #
b1111110 '
1&
#3200000
0&
#3250000
1"
b101 =
1)
b1111 :
b1000010111110011 !
b1000010111110011 ,
b11 7
b1111 -
b1111 ?
b110 .
b110 <
b1101 /
b1101 9
b11 0
b11 6
b1000 1
b1000 >
b1111 2
b1111 ;
b1 3
b1 8
b1111 4
b1111 5
b1111011011010011 $
b1111011011010011 (
b1000111100011111 #
b1000111100011111 '
1&
#3300000
0&
#3350000
b1110 @
0"
b1 =
b1101 :
b1110000111010100 !
b1110000111010100 ,
b100 7
b101 -
b101 ?
b1001 .
b1001 <
b101 /
b101 9
b1011 0
b1011 6
b1000 2
b1000 ;
b111 3
b111 8
b1000 4
b1000 5
b101100101011011 $
b101100101011011 (
b1000100001111000 #
b1000100001111000 '
1&
#3400000
0&
#3450000
b101 @
1"
b1101 =
b110 :
b101110101101001 !
b101110101101001 ,
b1001 7
b1010 -
b1010 ?
b1111 .
b1111 <
b10 /
b10 9
b1010 0
b1010 6
b1010 1
b1010 >
b1110 2
b1110 ;
b11 3
b11 8
b1111 4
b1111 5
0%
b1010111100101010 $
b1010111100101010 (
b1010111000111111 #
b1010111000111111 '
1&
#3500000
0&
#3550000
1*
b100 @
0"
b101 =
b1 :
b100010100010100 !
b100010100010100 ,
b100 7
b0 -
b0 ?
b1100 .
b1100 <
b1000 /
b1000 9
b1110 0
b1110 6
b11 1
b11 >
b1000 2
b1000 ;
b1000 3
b1000 8
b110 4
b110 5
b110010001110 $
b110010001110 (
b11100010000110 #
b11100010000110 '
1&
#3600000
0&
#3650000
1"
b101 @
b110 =
b10 :
b101011000100001 !
b101011000100001 ,
b1 7
b1011 -
b1011 ?
b10 /
b10 9
b110 0
b110 6
b1001 1
b1001 >
b1001 2
b1001 ;
b1111 3
b1111 8
b1010 4
b1010 5
1%
b1011110000100110 $
b1011110000100110 (
b1001100111111010 #
b1001100111111010 '
1&
#3700000
0&
#3750000
0)
b101 @
b1100 =
b1101 :
0*
b101110011010011 !
b101110011010011 ,
b11 7
b1010 -
b1010 ?
b1000 .
b1000 <
b1111 0
b1111 6
b1011 1
b1011 >
b100 2
b100 ;
b1010 3
b1010 8
b11 4
b11 5
b1010100000101111 $
b1010100000101111 (
b1011010010100011 #
b1011010010100011 '
1&
#3800000
0&
#3850000
b110 @
1)
0"
b11 =
b1010 :
b110001110100100 !
b110001110100100 ,
b100 7
b0 -
b0 ?
b1101 .
b1101 <
b100 /
b100 9
b100 0
b100 6
b101 1
b101 >
b110 2
b110 ;
b101 3
b101 8
b1111 4
b1111 5
b110101000100 $
b110101000100 (
b101011001011111 #
b101011001011111 '
1&
#3900000
0&
#3950000
b1 =
b101 @
b1011 :
1*
b101000110110001 !
b101000110110001 ,
b1 7
b1 -
b1 ?
b1010 .
b1010 <
b1110 /
b1110 9
b110 0
b110 6
b11 1
b11 >
b1100 3
b1100 8
b1011 4
b1011 5
0%
b1101011100110 $
b1101011100110 (
b11011011001011 #
b11011011001011 '
1&
#4000000
0&
#4050000
1"
b1010 @
b100 =
0)
b1 :
b1010010000010110 !
b1010010000010110 ,
b110 7
b1110 -
b1110 ?
b10 .
b10 <
b1101 0
b1101 6
b1100 1
b1100 >
b1 2
b1 ;
b10 3
b10 8
b1001 4
b1001 5
b1110001011101101 $
b1110001011101101 (
b1100000100101001 #
b1100000100101001 '
1&
#4100000
0&
#4150000
0+
b1001 @
b1001 =
b1 :
b1001100100011011 !
b1001100100011011 ,
b1011 7
b1011 /
b1011 9
b101 0
b101 6
b1011 1
b1011 >
b110 2
b110 ;
b110 3
b110 8
b101 4
b101 5
1%
b1110001010110101 $
b1110001010110101 (
b1011011001100101 #
b1011011001100101 '
1&
#4200000
0&
#4250000
b1000 =
1)
0*
b1 @
b1011 :
b1100010111101 !
b1100010111101 ,
b1101 7
b1111 -
b1111 ?
b1111 .
b1111 <
b100 /
b100 9
b100 0
b100 6
b1 1
b1 >
b1001 2
b1001 ;
b111 3
b111 8
b1001 4
b1001 5
0%
b1111111101000100 $
b1111111101000100 (
b1100101111001 #
b1100101111001 '
1&
#4300000
0&
#4350000
0"
1+
b1011 @
b1101 :
b1011100011010101 !
b1011100011010101 ,
b101 7
b1010 -
b1010 ?
b1101 .
b1101 <
b1010 /
b1010 9
b1011 0
b1011 6
b0 1
b0 >
b1011 2
b1011 ;
b10 3
b10 8
b1010 4
b1010 5
b1010110110101011 $
b1010110110101011 (
b101100101010 #
b101100101010 '
1&
#4400000
0&
#4450000
b110 @
1"
b1010 =
b111 :
1*
b110101001110111 !
b110101001110111 ,
b111 7
b1011 -
b1011 ?
b1100 .
b1100 <
b1001 /
b1001 9
b1010 0
b1010 6
b1010 1
b1010 >
b1101 2
b1101 ;
b1101 3
b1101 8
b1100 4
b1100 5
1%
b1011110010011010 $
b1011110010011010 (
b1010110111011100 #
b1010110111011100 '
1&
#4500000
0&
#4550000
b1111 @
0"
b0 =
b1 :
0+
b1111000000011001 !
b1111000000011001 ,
b1001 7
b1110 -
b1110 ?
b1101 .
b1101 <
b101 /
b101 9
b110 0
b110 6
b0 1
b0 >
b10 2
b10 ;
b1100 3
b1100 8
b11 4
b11 5
0%
b1110110101010110 $
b1110110101010110 (
b1011000011 #
b1011000011 '
1&
#4600000
0&
#4650000
0)
1+
b1010 @
b1010 =
b111 :
0*
b1010101001110001 !
b1010101001110001 ,
b1 7
b11 -
b11 ?
b100 .
b100 <
b0 /
b0 9
b1010 0
b1010 6
b111 1
b111 >
b110 2
b110 ;
b110 3
b110 8
b111 4
b111 5
b11010000001010 $
b11010000001010 (
b111011001100111 #
b111011001100111 '
1&
#4700000
0&
#4750000
1"
1)
b1 @
b1 =
b1000110110001 !
b1000110110001 ,
b1011 :
b1000 -
b1000 ?
b111 .
b111 <
b111 /
b111 9
b1001 0
b1001 6
b1000 1
b1000 >
b1010 2
b1010 ;
b11 3
b11 8
b1000 4
b1000 5
b1000011101111001 $
b1000011101111001 (
b1000101000111000 #
b1000101000111000 '
1&
#4800000
0&
#4850000
b1101 =
b10 :
1*
b1110100100111 !
b1110100100111 ,
b111 7
0+
b101 -
b101 ?
b1101 .
b1101 <
b1001 /
b1001 9
b11 0
b11 6
b1011 1
b1011 >
b1111 2
b1111 ;
b1001 3
b1001 8
b100 4
b100 5
b101110110010011 $
b101110110010011 (
b1011111110010100 #
b1011111110010100 '
1&
#4900000
0&
#4950000
b11 :
1+
b11 @
b100 =
b11010000110101 !
b11010000110101 ,
b101 7
b110 -
b110 ?
b1001 .
b1001 <
b1101 /
b1101 9
b1011 0
b1011 6
b1100 1
b1100 >
b1010 2
b1010 ;
b101 3
b101 8
b1001 4
b1001 5
1%
b110100111011011 $
b110100111011011 (
b1100101001011001 #
b1100101001011001 '
1&
#5000000
0&
#5050000
0"
0)
b1101 @
b1110 =
b100 :
b1101111001000110 !
b1101111001000110 ,
b110 7
b10 -
b10 ?
b110 .
b110 <
b110 /
b110 9
b1101 0
b1101 6
b1011 1
b1011 >
b111 2
b111 ;
b1101 3
b1101 8
0%
b10011001101101 $
b10011001101101 (
b1011011111011001 #
b1011011111011001 '
1&
#5100000
0&
#5150000
b111 @
b111 =
1)
b1000 :
b111011110000001 !
b111011110000001 ,
b1 7
b1101 .
b1101 <
b1011 /
b1011 9
b110 0
b110 6
b100 1
b100 >
b1001 2
b1001 ;
b1100 3
b1100 8
b1010 4
b1010 5
1%
b10110110110110 $
b10110110110110 (
b100100111001010 #
b100100111001010 '
1&
#5200000
0&
#5250000
0*
b1011 @
b101 =
b100 :
b1011010101001011 !
b1011010101001011 ,
b1011 7
0+
b1001 -
b1001 ?
b1011 .
b1011 <
b0 /
b0 9
b100 0
b100 6
b1 1
b1 >
b1010 2
b1010 ;
b100 3
b100 8
b110 4
b110 5
b1001101100000100 $
b1001101100000100 (
b1101001000110 #
b1101001000110 '
1&
#5300000
0&
#5350000
1*
b1100 @
b10 =
b1 :
b1100001000011101 !
b1100001000011101 ,
b1101 7
b1011 -
b1011 ?
b1010 .
b1010 <
b1011 /
b1011 9
b0 1
b0 >
b111 2
b111 ;
b110 3
b110 8
b1001 4
b1001 5
0%
b1011101010110100 $
b1011101010110100 (
b11101101001 #
b11101101001 '
1&
#5400000
0&
#5450000
0)
1+
b1101 @
b1101 =
b101 :
0*
b1101110101010110 !
b1101110101010110 ,
b110 7
b0 -
b0 ?
b100 .
b100 <
b10 /
b10 9
b1101 0
b1101 6
b1101 1
b1101 >
b1001 2
b1001 ;
b10 3
b10 8
b1000 4
b1000 5
1%
b10000101101 $
b10000101101 (
b1101100100101000 #
b1101100100101000 '
1&
#5500000
0&
#5550000
1"
b11 :
b1000 @
b1000000000110110 !
b1000000000110110 ,
b0 =
1)
b1110 -
b1110 ?
b0 /
b0 9
b1000 0
b1000 6
b1001 1
b1001 >
b1100 2
b1100 ;
b1110 4
b1110 5
0%
b1110010000001000 $
b1110010000001000 (
b1001110000101110 #
b1001110000101110 '
1&
#5600000
0&
#5650000
0"
b1010 @
b1110 =
0)
b1010111000100110 !
b1010111000100110 ,
b10 :
1*
b0 -
b0 ?
b111 .
b111 <
b10 /
b10 9
b1001 0
b1001 6
b1010 1
b1010 >
b110 2
b110 ;
b1111 3
b1111 8
b1101 4
b1101 5
b11100101001 $
b11100101001 (
b1010011011111101 #
b1010011011111101 '
1&
#5700000
0&
#5750000
1)
b111 @
b0 =
b110 :
b111000001100001 !
b111000001100001 ,
b1 7
b1000 .
b1000 <
b1101 /
b1101 9
b1010 0
b1010 6
b110 1
b110 >
b111 2
b111 ;
b1000 3
b1000 8
b110 4
b110 5
1%
b100011011010 $
b100011011010 (
b110011110000110 #
b110011110000110 '
1&
#5800000
0&
#5850000
b110 @
1"
b1011 =
0)
0*
b111 7
0+
b110101111010111 !
b110101111010111 ,
b1101 :
b1100 -
b1100 ?
b100 .
b100 <
b111 /
b111 9
b0 0
b0 6
b1010 1
b1010 >
b110 3
b110 8
b1100010001110000 $
b1100010001110000 (
b1010011101100110 #
b1010011101100110 '
1&
#5900000
0&
#5950000
1+
b100 @
b1101 =
b1 :
1*
b100110100011000 !
b100110100011000 ,
b1000 7
b1011 -
b1011 ?
b11 .
b11 <
b101 /
b101 9
b1110 0
b1110 6
b1001 1
b1001 >
b1001 2
b1001 ;
b1011 3
b1011 8
b1010 4
b1010 5
0%
b1011001101011110 $
b1011001101011110 (
b1001100110111010 #
b1001100110111010 '
1&
#6000000
0&
#6050000
0*
b1111 @
0"
b1011 =
b1111 :
b1111101111110000 !
b1111101111110000 ,
b0 7
b1111 -
b1111 ?
b110 .
b110 <
b1 /
b1 9
b1010 0
b1010 6
b0 1
b0 >
b101 2
b101 ;
b1101 3
b1101 8
b101 4
b101 5
1%
b1111011000011010 $
b1111011000011010 (
b10111010101 #
b10111010101 '
1&
#6100000
0&
#6150000
b1001 @
b1000 =
b1100 :
b1001100011001101 !
b1001100011001101 ,
b1101 7
0+
b11 -
b11 ?
b111 .
b111 <
b1001 /
b1001 9
b110 0
b110 6
b110 1
b110 >
b1 2
b1 ;
b11 3
b11 8
b111 4
b111 5
0%
b11011110010110 $
b11011110010110 (
b110000100110111 #
b110000100110111 '
1&
#6200000
0&
#6250000
b1011 @
b1001 =
1)
b1011100111011101 !
b1011100111011101 ,
b1101 :
b1 -
b1 ?
b1010 .
b1010 <
b1011 /
b1011 9
b1001 1
b1001 >
b1111 2
b1111 ;
b10 3
b10 8
b110 4
b110 5
1%
b1101010110110 $
b1101010110110 (
b1001111100100110 #
b1001111100100110 '
1&
#6300000
0&
#6350000
b111 =
b110 @
b110 :
1*
1+
b110011101100010 !
b110011101100010 ,
b10 7
b101 -
b101 ?
b111 .
b111 <
b1000 /
b1000 9
b0 1
b0 >
b1101 3
b1101 8
b1100 4
b1100 5
0%
b101011110000110 $
b101011110000110 (
b111111011100 #
b111111011100 '
1&
#6400000
0&
#6450000
1"
0)
b1 @
b1100 =
b101 :
b1110001011010 !
b1110001011010 ,
b1010 7
b1000 -
b1000 ?
b0 .
b0 <
b1101 /
b1101 9
b1011 0
b1011 6
b1001 1
b1001 >
b1011 2
b1011 ;
b111 3
b111 8
b1110 4
b1110 5
1%
b1000000011011011 $
b1000000011011011 (
b1001101101111110 #
b1001101101111110 '
1&
#6500000
0&
#6550000
b0 =
1)
b111 :
b1 @
b1000001110100 !
b1000001110100 ,
b100 7
b1110 -
b1110 ?
b100 .
b100 <
b1111 /
b1111 9
b1010 0
b1010 6
b10 1
b10 >
b1001 4
b1001 5
b1110010011111010 $
b1110010011111010 (
b10101101111001 #
b10101101111001 '
1&
#6600000
0&
#6650000
0*
0+
b1000 @
0"
b1 =
b1011 :
b1000000110111000 !
b1000000110111000 ,
b1000 7
b111 -
b111 ?
b1000 .
b1000 <
b1010 /
b1010 9
b1 0
b1 6
b0 1
b0 >
b1001 2
b1001 ;
b1 3
b1 8
b111 4
b111 5
0%
b111100010100001 $
b111100010100001 (
b100100010111 #
b100100010111 '
1&
#6700000
0&
#6750000
1*
b1111 @
b0 =
1)
b100 :
b1111000001000110 !
b1111000001000110 ,
b110 7
b101 -
b101 ?
b1001 .
b1001 <
b1111 /
b1111 9
b101 0
b101 6
b1001 1
b1001 >
b110 2
b110 ;
b101 3
b101 8
b0 4
b0 5
1%
b101100111110101 $
b101100111110101 (
b1001011001010000 #
b1001011001010000 '
1&
#6800000
0&
#6850000
b1111 =
0)
0"
0*
b1111 @
b1110 :
b1111111111101011 !
b1111111111101011 ,
b1011 7
b111 -
b111 ?
b101 .
b101 <
b1100 /
b1100 9
b1 0
b1 6
b1000 1
b1000 >
b1010 2
b1010 ;
b10 3
b10 8
b1001 4
b1001 5
b111010111000001 $
b111010111000001 (
b1000101000101001 #
b1000101000101001 '
1&
#6900000
0&
#6950000
1+
b10 @
1"
b1110 :
b10111111100100 !
b10111111100100 ,
b100 7
b1011 .
b1011 <
b100 /
b100 9
b1011 0
b1011 6
b1011 1
b1011 >
b100 2
b100 ;
b1001 3
b1001 8
b1000 4
b1000 5
b111101101001011 $
b111101101001011 (
b1011010010011000 #
b1011010010011000 '
1&
#7000000
0&
#7050000
0"
b1111 @
b1101 =
b111 :
1*
b1111110101110110 !
b1111110101110110 ,
b110 7
b1 -
b1 ?
b110 .
b110 <
b1000 /
b1000 9
b1010 0
b1010 6
b1110 1
b1110 >
b110 2
b110 ;
b1110 3
b1110 8
b1100 4
b1100 5
0%
b1011010001010 $
b1011010001010 (
b1110011011101100 #
b1110011011101100 '
1&
#7100000
0&
#7150000
1"
b111 @
b1110 =
b101 :
b111111001010010 !
b111111001010010 ,
b10 7
b1111 -
b1111 ?
b1101 .
b1101 <
b1010 /
b1010 9
b1001 0
b1001 6
b1000 1
b1000 >
b0 2
b0 ;
b1010 3
b1010 8
b1000 4
b1000 5
1%
b1111110110101001 $
b1111110110101001 (
b1000000010101000 #
b1000000010101000 '
1&
#7200000
0&
#7250000
b1 @
b1111 =
b1111 :
0*
b1111111110101 !
b1111111110101 ,
b101 7
b110 -
b110 ?
b110 .
b110 <
b1110 /
b1110 9
b110 0
b110 6
b1011 1
b1011 >
b1001 2
b1001 ;
b0 3
b0 8
b1110 4
b1110 5
b110011011100110 $
b110011011100110 (
b1011100100001110 #
b1011100100001110 '
1&
#7300000
0&
#7350000
b1101 @
0"
1)
b10 =
b1101001001010101 !
b1101001001010101 ,
b101 :
b1 -
b1 ?
b1101 .
b1101 <
b10 /
b10 9
b1010 0
b1010 6
b101 2
b101 ;
b10 3
b10 8
b1010 4
b1010 5
b1110100101010 $
b1110100101010 (
b1011010100101010 #
b1011010100101010 '
1&
#7400000
0&
